%!PS-Adobe-2.0 EPSF-2.0
%%BoundingBox: 70 350 590 520
%%HiResBoundingBox: 70.000000 350.000000 590.000000 520.000000
%%Creator: MOPLOT (M. P. Fuelscher)
%%Title:
%%CreationDate:
%%DocumentFont:
%%EndComments
% EPSF created by ps2eps 1.68
%%BeginProlog
save
countdictstack
mark
newpath
/showpage {} def
/setpagedevice {pop} def
%%EndProlog
%%Page 1 1
 /Helvetica findfont 36 scalefont setfont
%---
%0.1 setlinewidth
%/llx  70 def
%/lly 350 def
%/urx 590 def
%/ury 520 def
%llx lly moveto
%llx ury lineto
%urx ury lineto
%urx lly lineto
%closepath stroke
%---
 1 setlinecap 1 setlinejoin
 0.30 0.30 scale
% dimethylcarbene
%0 760 translate
% 150 1520 translate
 150 1100 translate
 /title {
 2 setlinewidth
 150 450 moveto
 (reactant) show 
 0 240 moveto
%(A) show 
 1 setlinewidth
 } def
 title
 /ball {
 492 203 3  0 360 arc
 1.0 setgray fill
 492 203 3  0 360 arc
 0.0 setgray stroke 
 500 182  moveto
 () show } def
 ball
 /ball {
 227 278 3  0 360 arc
 1.0 setgray fill
 227 278 3  0 360 arc
 0.0 setgray stroke 
 212 286  moveto
 () show } def
 ball
 /ball {
 195 110 8  0 360 arc
 1.0 setgray fill
 195 110 8  0 360 arc
 0.0 setgray stroke 
 175 84  moveto
 () show } def
 ball
 /ball {
 524 371 8  0 360 arc
 1.0 setgray fill
 524 371 8  0 360 arc
 0.0 setgray stroke 
 537 384  moveto
 () show } def
 ball
 /box {
 newpath
 494 204  moveto
 505 236  lineto
 500 237  lineto
 492 204  lineto
 closepath
 0.0 setgray fill } def
 box
 /box {
 newpath
 520 363  moveto
 504 257  lineto
 509 256  lineto
 525 362  lineto
 closepath
 0.0 setgray fill } def
 box
 /ball {
 504 241 15  0 360 arc
 1.0 setgray fill
 504 241 15  0 360 arc
 0.0 setgray stroke 
 495 236  moveto
 () show } def
 ball
 /box {
 newpath
 225 277  moveto
 214 245  lineto
 219 244  lineto
 227 277  lineto
 closepath
 0.0 setgray fill } def
 box
 /box {
 newpath
 199 118  moveto
 215 224  lineto
 210 225  lineto
 194 119  lineto
 closepath
 0.0 setgray fill } def
 box
 /ball {
 215 240 15  0 360 arc
 1.0 setgray fill
 215 240 15  0 360 arc
 0.0 setgray stroke 
 206 235  moveto
 () show } def
 ball
 /box {
 newpath
 600 198  moveto
 517 237  lineto
 515 233  lineto
 597 192  lineto
 closepath
 0.0 setgray fill } def
 box
 /ball {
 609 190 12  0 360 arc
 1.0 setgray fill
 609 190 12  0 360 arc
 0.0 setgray stroke 
 600 185  moveto
 () show } def
 ball
 /box {
 newpath
 119 283  moveto
 202 244  lineto
 204 248  lineto
 122 289  lineto
 closepath
 0.0 setgray fill } def
 box
 /ball {
 110 291 12  0 360 arc
 1.0 setgray fill
 110 291 12  0 360 arc
 0.0 setgray stroke 
 101 286  moveto
 () show } def
 ball
 /box {
 newpath
 228 238  moveto
 336 236  lineto
 336 245  lineto
 228 242  lineto
 closepath
 0.0 setgray fill } def
 box
 /box {
 newpath
 491 243  moveto
 383 245  lineto
 383 236  lineto
 491 239  lineto
 closepath
 0.0 setgray fill } def
 box
 /ball {
 360 240 28  0 360 arc
 1.0 setgray fill
 360 240 28  0 360 arc
 0.0 setgray stroke 
 351 235  moveto
 () show } def
 ball
% dimethylcarbene, transition state
 570 0 translate
 /title {
 2 setlinewidth
 150 450 moveto
 (transition state) show 
 1 setlinewidth
 } def
 title
 /ball {
 492 234 3  0 360 arc
 1.0 setgray fill
 492 234 3  0 360 arc
 0.0 setgray stroke 
 500 213  moveto
 () show } def
 ball
 /ball {
 219 256 4  0 360 arc
 1.0 setgray fill
 219 256 4  0 360 arc
 0.0 setgray stroke 
 203 265  moveto
 () show } def
 ball
 /box {
 newpath
 493 233  moveto
 503 239  lineto
 501 242  lineto
 492 235  lineto
 closepath
 0.0 setgray fill } def
 box
 /ball {
 503 241 15  0 360 arc
 1.0 setgray fill
 503 241 15  0 360 arc
 0.0 setgray stroke 
 494 236  moveto
 () show } def
 ball
 /box {
 newpath
 218 255  moveto
 214 242  lineto
 219 241  lineto
 220 255  lineto
 closepath
 0.0 setgray fill } def
 box
 /ball {
 216 240 17  0 360 arc
 1.0 setgray fill
 216 240 17  0 360 arc
 0.0 setgray stroke 
 207 235  moveto
 () show } def
 ball
 /box {
 newpath
 614 240  moveto
 517 243  lineto
 517 238  lineto
 613 233  lineto
 closepath
 0.0 setgray fill } def
 box
 /ball {
 625 236 11  0 360 arc
 1.0 setgray fill
 625 236 11  0 360 arc
 0.0 setgray stroke 
 616 231  moveto
 () show } def
 ball
 /box {
 newpath
 173 131  moveto
 212 223  lineto
 207 225  lineto
 167 134  lineto
 closepath
 0.0 setgray fill } def
 box
 /ball {
 166 122 11  0 360 arc
 1.0 setgray fill
 166 122 11  0 360 arc
 0.0 setgray stroke 
 157 117  moveto
 () show } def
 ball
% non-bonded interaction
5 setlinewidth
[10 10] 0 setdash
 /box {
 newpath
 462 367  moveto
 374 241  lineto
 stroke } def
 box
 /box {
 newpath
 462 367  moveto
 492 234  lineto
 stroke } def
 box
[] 0 setdash
1 setlinewidth
 /ball {
 462 367 13  0 360 arc
 1.0 setgray fill
 462 367 13  0 360 arc
 0.0 setgray stroke 
 453 362  moveto
 () show } def
 ball
 /box {
 newpath
 139 313  moveto
 203 249  lineto
 207 253  lineto
 144 318  lineto
 closepath
 0.0 setgray fill } def
 box
 /ball {
 132 325 13  0 360 arc
 1.0 setgray fill
 132 325 13  0 360 arc
 0.0 setgray stroke 
 123 320  moveto
 () show } def
 ball
 /box {
 newpath
 492 244  moveto
 397 246  lineto
 397 237  lineto
 492 239  lineto
 closepath
 0.0 setgray fill } def
 box
 /box {
 newpath
 231 237  moveto
 349 236  lineto
 349 245  lineto
 231 242  lineto
 closepath
 0.0 setgray fill } def
 box
 /ball {
 374 241 28  0 360 arc
 1.0 setgray fill
 374 241 28  0 360 arc
 0.0 setgray stroke 
 365 236  moveto
 () show } def
 ball
% propene
 570 0 translate
 /title {
 2 setlinewidth
 150 450 moveto
 (product) show 
 1 setlinewidth
 } def
 title
 180 rotate
 -770 -500 translate
 /ball {
 446 292 4  0 360 arc
 1.0 setgray fill
 446 292 4  0 360 arc
 0.0 setgray stroke 
 455 301  moveto
 () show } def
 ball
 /ball {
 579 155 7  0 360 arc
 1.0 setgray fill
 579 155 7  0 360 arc
 0.0 setgray stroke 
 591 130  moveto
 () show } def
 ball
 /ball {
 169 263 7  0 360 arc
 1.0 setgray fill
 169 263 7  0 360 arc
 0.0 setgray stroke 
 150 275  moveto
 () show } def
 ball
 /box {
 newpath
 447 290  moveto
 494 260  lineto
 496 264  lineto
 448 291  lineto
 closepath
 0.0 setgray fill } def
 box
 /box {
 newpath
 576 162  moveto
 512 248  lineto
 508 246  lineto
 573 160  lineto
 closepath
 0.0 setgray fill } def
 box
 /ball {
 501 259 14  0 360 arc
 1.0 setgray fill
 501 259 14  0 360 arc
 0.0 setgray stroke 
 492 254  moveto
 () show } def
 ball
 /box {
 newpath
 570 351  moveto
 508 271  lineto
 512 268  lineto
 575 348  lineto
 closepath
 0.0 setgray fill } def
 box
 /ball {
 579 357 10  0 360 arc
 1.0 setgray fill
 579 357 10  0 360 arc
 0.0 setgray stroke 
 570 352  moveto
 () show } def
 ball
 /box {
 newpath
 171 259  moveto
 206 233  lineto
 210 240  lineto
 173 263  lineto
 closepath
 0.0 setgray fill } def
 box
 /ball {
 218 230 26  0 360 arc
 1.0 setgray fill
 218 230 26  0 360 arc
 0.0 setgray stroke 
 209 225  moveto
 () show } def
 ball
 /box {
 newpath
 347 228  moveto
 244 232  lineto
 243 224  lineto
 346 219  lineto
 closepath
 0.0 setgray fill } def
 box
 /box {
 newpath
 491 258  moveto
 396 233  lineto
 399 224  lineto
 492 254  lineto
 closepath
 0.0 setgray fill } def
 box
 /ball {
 376 222 30  0 360 arc
 1.0 setgray fill
 376 222 30  0 360 arc
 0.0 setgray stroke 
 367 217  moveto
 () show } def
 ball
 /box {
 newpath
 152 201  moveto
 202 220  lineto
 199 228  lineto
 147 214  lineto
 closepath
 0.0 setgray fill } def
 box
 /ball {
 138 203 13  0 360 arc
 1.0 setgray fill
 138 203 13  0 360 arc
 0.0 setgray stroke 
 123 197  moveto
 () show } def
 ball
 /box {
 newpath
 414 204  moveto
 389 218  lineto
 383 211  lineto
 403 190  lineto
 closepath
 0.0 setgray fill } def
 box
 /ball {
 420 188 17  0 360 arc
 1.0 setgray fill
 420 188 17  0 360 arc
 0.0 setgray stroke 
 411 183  moveto
 () show } def
 ball
 showpage
% ------------------------------
%%Trailer:
%%Trailer
cleartomark
countdictstack
exch sub { end } repeat
restore
%%EOF
